﻿"Top 5 values of Carrier","Count of records","Median of AvgTicketPrice","Median of FlightTimeMin"
"Logstash Airways",582,"$677.3","510.047"
JetBeats,559,"$642.38","495.227"
"ES-Air",544,"$642.54","503.12"
"Kibana Airlines",516,"$651.31","520.538"
